door.pulseview.vcd
$date today $end
$timescale 1 us $end
$scope module door $end
$var wire 1 ! CS $end
$var wire 1 " CLK $end
$var wire 1 # MISO $end
$upscope $end
$enddefinitions $end
#0
$dumpvars
1!
0"
0#
$end
#48
0!
#53
1"
#57
0"
#59
1#
#61
1"
#65
0"
#69
1"
#73
0"
#75
0#
#77
1"
#81
0"
#85
1"
#89
0"
#91
1#
#93
1"
#97
0"
#101
1"
#105
0"
#107
0#
#109
1"
#113
0"
#114
1!
#130
0!
#135
1"
#139
0"
#141
1#
#143
1"
#147
0"
#151
1"
#155
0"
#157
0#
#159
1"
#163
0"
#165
1#
#167
1"
#171
0"
#175
1"
#179
0"
#181
0#
#183
1"
#187
0"
#191
1"
#195
0"
#196
1!
#212
0!
#217
1"
#221
0"
#223
1#
#225
1"
#229
0"
#233
1"
#237
0"
#239
0#
#241
1"
#245
0"
#249
1"
#253
0"
#257
1"
#261
0"
#265
1"
#269
0"
#271
1#
#273
1"
#277
0"
#278
1!
#294
0!
#297
0#
#299
1"
#303
0"
#305
1#
#307
1"
#311
0"
#315
1"
#319
0"
#321
0#
#323
1"
#327
0"
#331
1"
#335
0"
#337
1#
#339
1"
#343
0"
#347
1"
#351
0"
#355
1"
#359
0"
#360
1!
#376
0!
#379
0#
#381
1"
#385
0"
#387
1#
#389
1"
#393
0"
#397
1"
#401
0"
#405
1"
#409
0"
#413
1"
#417
0"
#419
0#
#421
1"
#425
0"
#427
1#
#429
1"
#433
0"
#437
1"
#441
0"
#442
1!
#458
0!
#461
0#
#463
1"
#467
0"
#471
1"
#475
0"
#477
1#
#479
1"
#483
0"
#487
1"
#491
0"
#493
0#
#495
1"
#499
0"
#503
1"
#507
0"
#511
1"
#515
0"
#517
1#
#519
1"
#523
0"
#524
1!
#540
0!
#543
0#
#545
1"
#549
0"
#551
1#
#553
1"
#557
0"
#561
1"
#565
0"
#567
0#
#569
1"
#573
0"
#575
1#
#577
1"
#581
0"
#585
1"
#589
0"
#593
1"
#597
0"
#599
0#
#601
1"
#605
0"
#606
1!
#622
0!
#627
1"
#631
0"
#635
1"
#639
0"
#641
1#
#643
1"
#647
0"
#651
1"
#655
0"
#657
0#
#659
1"
#663
0"
#665
1#
#667
1"
#671
0"
#673
0#
#675
1"
#679
0"
#681
1#
#683
1"
#687
0"
#688
1!
#704
0!
#707
0#
#709
1"
#713
0"
#717
1"
#721
0"
#723
1#
#725
1"
#729
0"
#733
1"
#737
0"
#739
0#
#741
1"
#745
0"
#749
1"
#753
0"
#757
1"
#761
0"
#763
1#
#765
1"
#769
0"
#770
1!
#786
0!
#789
0#
#791
1"
#795
0"
#797
1#
#799
1"
#803
0"
#807
1"
#811
0"
#813
0#
#815
1"
#819
0"
#823
1"
#827
0"
#829
1#
#831
1"
#835
0"
#837
0#
#839
1"
#843
0"
#847
1"
#851
0"
#852
1!
#868
0!
#873
1"
#877
0"
#879
1#
#881
1"
#885
0"
#889
1"
#893
0"
#895
0#
#897
1"
#901
0"
#905
1"
#909
0"
#911
1#
#913
1"
#917
0"
#919
0#
#921
1"
#925
0"
#927
1#
#929
1"
#933
0"
#934
1!
#950
0!
#953
0#
#955
1"
#959
0"
#961
1#
#963
1"
#967
0"
#969
0#
#971
1"
#975
0"
#977
1#
#979
1"
#983
0"
#987
1"
#991
0"
#995
1"
#999
0"
#1003
1"
#1007
0"
#1011
1"
#1015
0"
#1016
1!
#1032
0!
#1035
0#
#1037
1"
#1041
0"
#1043
1#
#1045
1"
#1049
0"
#1053
1"
#1057
0"
#1061
1"
#1065
0"
#1067
0#
#1069
1"
#1073
0"
#1075
1#
#1077
1"
#1081
0"
#1083
0#
#1085
1"
#1089
0"
#1093
1"
#1097
0"
#1098
1!
#1114
0!
#1119
1"
#1123
0"
#1125
1#
#1127
1"
#1131
0"
#1135
1"
#1139
0"
#1141
0#
#1143
1"
#1147
0"
#1149
1#
#1151
1"
#1155
0"
#1157
0#
#1159
1"
#1163
0"
#1167
1"
#1171
0"
#1175
1"
#1179
0"
#1180
1!
#1196
0!
#1201
1"
#1205
0"
#1209
1"
#1213
0"
#1215
1#
#1217
1"
#1221
0"
#1225
1"
#1229
0"
#1231
0#
#1233
1"
#1237
0"
#1241
1"
#1245
0"
#1247
1#
#1249
1"
#1253
0"
#1257
1"
#1261
0"
#1262
1!
#1278
0!
#1281
0#
#1283
1"
#1287
0"
#1289
1#
#1291
1"
#1295
0"
#1297
0#
#1299
1"
#1303
0"
#1305
1#
#1307
1"
#1311
0"
#1315
1"
#1319
0"
#1323
1"
#1327
0"
#1331
1"
#1335
0"
#1339
1"
#1343
0"
#1344
1!
#1360
0!
#1363
0#
#1365
1"
#1369
0"
#1371
1#
#1373
1"
#1377
0"
#1381
1"
#1385
0"
#1389
1"
#1393
0"
#1395
0#
#1397
1"
#1401
0"
#1405
1"
#1409
0"
#1411
1#
#1413
1"
#1417
0"
#1421
1"
#1425
0"
#1426
1!
#1442
0!
#1445
0#
#1447
1"
#1451
0"
#1455
1"
#1459
0"
#1461
1#
#1463
1"
#1467
0"
#1471
1"
#1475
0"
#1477
0#
#1479
1"
#1483
0"
#1487
1"
#1491
0"
#1493
1#
#1495
1"
#1499
0"
#1503
1"
#1507
0"
#1508
1!
#1524
0!
#1527
0#
#1529
1"
#1533
0"
#1535
1#
#1537
1"
#1541
0"
#1545
1"
#1549
0"
#1553
1"
#1557
0"
#1559
0#
#1561
1"
#1565
0"
#1569
1"
#1573
0"
#1575
1#
#1577
1"
#1581
0"
#1583
0#
#1585
1"
#1589
0"
#1590
1!
#1606
0!
#1611
1"
#1615
0"
#1617
1#
#1619
1"
#1623
0"
#1627
1"
#1631
0"
#1635
1"
#1639
0"
#1641
0#
#1643
1"
#1647
0"
#1649
1#
#1651
1"
#1655
0"
#1659
1"
#1663
0"
#1665
0#
#1667
1"
#1671
0"
#1672
1!
#1688
0!
#1693
1"
#1697
0"
#1701
1"
#1705
0"
#1707
1#
#1709
1"
#1713
0"
#1717
1"
#1721
0"
#1723
0#
#1725
1"
#1729
0"
#1733
1"
#1737
0"
#1739
1#
#1741
1"
#1745
0"
#1749
1"
#1753
0"
#1754
1!
#1770
0!
#1773
0#
#1775
1"
#1779
0"
#1781
1#
#1783
1"
#1787
0"
#1791
1"
#1795
0"
#1799
1"
#1803
0"
#1805
0#
#1807
1"
#1811
0"
#1815
1"
#1819
0"
#1821
1#
#1823
1"
#1827
0"
#1829
0#
#1831
1"
#1835
0"
#1836
1!
#1852
0!
#1857
1"
#1861
0"
#1863
1#
#1865
1"
#1869
0"
#1871
0#
#1873
1"
#1877
0"
#1879
1#
#1881
1"
#1885
0"
#1889
1"
#1893
0"
#1897
1"
#1901
0"
#1905
1"
#1909
0"
#1913
1"
#1917
0"
#1918
1!
#1934
0!
#1937
0#
#1939
1"
#1943
0"
#1945
1#
#1947
1"
#1951
0"
#1955
1"
#1959
0"
#1963
1"
#1967
0"
#1969
0#
#1971
1"
#1975
0"
#1979
1"
#1983
0"
#1985
1#
#1987
1"
#1991
0"
#1993
0#
#1995
1"
#1999
0"
#2000
1!
#2016
0!
#2021
1"
#2025
0"
#2029
1"
#2033
0"
#2035
1#
#2037
1"
#2041
0"
#2045
1"
#2049
0"
#2051
0#
#2053
1"
#2057
0"
#2061
1"
#2065
0"
#2069
1"
#2073
0"
#2077
1"
#2081
0"
#2082
1!
#2098
0!
#2103
1"
#2107
0"
#2111
1"
#2115
0"
#2117
1#
#2119
1"
#2123
0"
#2127
1"
#2131
0"
#2133
0#
#2135
1"
#2139
0"
#2143
1"
#2147
0"
#2151
1"
#2155
0"
#2159
1"
#2163
0"
#2164
1!
#2180
0!
#2185
1"
#2189
0"
#2191
1#
#2193
1"
#2197
0"
#2201
1"
#2205
0"
#2207
0#
#2209
1"
#2213
0"
#2215
1#
#2217
1"
#2221
0"
#2225
1"
#2229
0"
#2231
0#
#2233
1"
#2237
0"
#2239
1#
#2241
1"
#2245
0"
#2246
1!
#2262
0!
#2265
0#
#2267
1"
#2271
0"
#2275
1"
#2279
0"
#2281
1#
#2283
1"
#2287
0"
#2291
1"
#2295
0"
#2299
1"
#2303
0"
#2305
0#
#2307
1"
#2311
0"
#2313
1#
#2315
1"
#2319
0"
#2321
0#
#2323
1"
#2327
0"
#2328
1!
#2344
0!
#2349
1"
#2353
0"
#2357
1"
#2361
0"
#2363
1#
#2365
1"
#2369
0"
#2373
1"
#2377
0"
#2381
1"
#2385
0"
#2387
0#
#2389
1"
#2393
0"
#2395
1#
#2397
1"
#2401
0"
#2403
0#
#2405
1"
#2409
0"
#2410
1!
#2426
0!
#2431
1"
#2435
0"
#2437
1#
#2439
1"
#2443
0"
#2447
1"
#2451
0"
#2453
0#
#2455
1"
#2459
0"
#2461
1#
#2463
1"
#2467
0"
#2469
0#
#2471
1"
#2475
0"
#2477
1#
#2479
1"
#2483
0"
#2487
1"
#2491
0"
#2492
1!
#2508
0!
#2511
0#
#2513
1"
#2517
0"
#2521
1"
#2525
0"
#2527
1#
#2529
1"
#2533
0"
#2537
1"
#2541
0"
#2543
0#
#2545
1"
#2549
0"
#2551
1#
#2553
1"
#2557
0"
#2561
1"
#2565
0"
#2567
0#
#2569
1"
#2573
0"
#2574
1!
#2590
0!
#2595
1"
#2599
0"
#2601
1#
#2603
1"
#2607
0"
#2609
0#
#2611
1"
#2615
0"
#2619
1"
#2623
0"
#2627
1"
#2631
0"
#2633
1#
#2635
1"
#2639
0"
#2641
0#
#2643
1"
#2647
0"
#2649
1#
#2651
1"
#2655
0"
#2656
1!
#2672
0!
#2675
0#
#2677
1"
#2681
0"
#2685
1"
#2689
0"
#2691
1#
#2693
1"
#2697
0"
#2701
1"
#2705
0"
#2707
0#
#2709
1"
#2713
0"
#2715
1#
#2717
1"
#2721
0"
#2723
0#
#2725
1"
#2729
0"
#2731
1#
#2733
1"
#2737
0"
#2738
1!
#2754
0!
#2757
0#
#2759
1"
#2763
0"
#2765
1#
#2767
1"
#2771
0"
#2775
1"
#2779
0"
#2783
1"
#2787
0"
#2789
0#
#2791
1"
#2795
0"
#2799
1"
#2803
0"
#2807
1"
#2811
0"
#2815
1"
#2819
0"
#2820
1!
#2836
0!
#2841
1"
#2845
0"
#2847
1#
#2849
1"
#2853
0"
#2855
0#
#2857
1"
#2861
0"
#2865
1"
#2869
0"
#2873
1"
#2877
0"
#2879
1#
#2881
1"
#2885
0"
#2889
1"
#2893
0"
#2897
1"
#2901
0"
#2902
1!
#2918
0!
#2921
0#
#2923
1"
#2927
0"
#2929
1#
#2931
1"
#2935
0"
#2939
1"
#2943
0"
#2947
1"
#2951
0"
#2953
0#
#2955
1"
#2959
0"
#2963
1"
#2967
0"
#2971
1"
#2975
0"
#2977
1#
#2979
1"
#2983
0"
#2984
1!
#3000
0!
#3003
0#
#3005
1"
#3009
0"
#3011
1#
#3013
1"
#3017
0"
#3021
1"
#3025
0"
#3027
0#
#3029
1"
#3033
0"
#3035
1#
#3037
1"
#3041
0"
#3045
1"
#3049
0"
#3053
1"
#3057
0"
#3061
1"
#3065
0"
#3066
1!
#3082
0!
#3085
0#
#3087
1"
#3091
0"
#3093
1#
#3095
1"
#3099
0"
#3101
0#
#3103
1"
#3107
0"
#3109
1#
#3111
1"
#3115
0"
#3119
1"
#3123
0"
#3125
0#
#3127
1"
#3131
0"
#3135
1"
#3139
0"
#3141
1#
#3143
1"
#3147
0"
#3148
1!
#3164
0!
#3167
0#
#3169
1"
#3173
0"
#3175
1#
#3177
1"
#3181
0"
#3185
1"
#3189
0"
#3191
0#
#3193
1"
#3197
0"
#3201
1"
#3205
0"
#3207
1#
#3209
1"
#3213
0"
#3215
0#
#3217
1"
#3221
0"
#3225
1"
#3229
0"
#3230
1!
#3246
0!
#3251
1"
#3255
0"
#3257
1#
#3259
1"
#3263
0"
#3265
0#
#3267
1"
#3271
0"
#3273
1#
#3275
1"
#3279
0"
#3283
1"
#3287
0"
#3289
0#
#3291
1"
#3295
0"
#3297
1#
#3299
1"
#3303
0"
#3305
0#
#3307
1"
#3311
0"
#3312
1!
#3328
0!
#3333
1"
#3337
0"
#3339
1#
#3341
1"
#3345
0"
#3347
0#
#3349
1"
#3353
0"
#3355
1#
#3357
1"
#3361
0"
#3365
1"
#3369
0"
#3371
0#
#3373
1"
#3377
0"
#3381
1"
#3385
0"
#3387
1#
#3389
1"
#3393
0"
#3394
1!
#3410
0!
#3413
0#
#3415
1"
#3419
0"
#3421
1#
#3423
1"
#3427
0"
#3431
1"
#3435
0"
#3439
1"
#3443
0"
#3447
1"
#3451
0"
#3455
1"
#3459
0"
#3461
0#
#3463
1"
#3467
0"
#3469
1#
#3471
1"
#3475
0"
#3476
1!
